…
``` r
## Load the samples_info.txt file onto R, change the column names to: FID, IID, SuperPopulation, Population
#?# Tyoe the commands you used below: - 1pt
 
 
sampleInfo <- read.table("C:/Users/cbarc/OneDrive/Desktop/git_temp/CB_BMEG591E-repository/Assignment_7/samples_info.txt")
sampleInfo <- as_tibble(sampleInfo)

sampleInfo <- rename(sampleInfo, IID = V1, FID = V2, SuperPopulation = V3, Population = V4) 

sampleInfo %>% relocate(IID, .after = FID)
```

    ## # A tibble: 2,504 x 4
    ##      FID IID     SuperPopulation Population
    ##    <int> <chr>   <chr>           <chr>     
    ##  1     1 HG00096 EUR             GBR       
    ##  2     2 HG00097 EUR             GBR       
    ##  3     2 HG00099 EUR             GBR       
    ##  4     2 HG00100 EUR             GBR       
    ##  5     1 HG00101 EUR             GBR       
    ##  6     2 HG00102 EUR             GBR       
    ##  7     1 HG00103 EUR             GBR       
    ##  8     1 HG00105 EUR             GBR       
    ##  9     2 HG00106 EUR             GBR       
    ## 10     1 HG00107 EUR             GBR       
    ## # ... with 2,494 more rows
…
